@0100
 4400
 0F1F
 4032
 1810
 D400
 02C0
 D400
 02C1
 D400
 051A
 C029
 D300
 6500
 02CF
 4035
 7400
 02C3
 701A
 4C28
 04C8
 1001
 4C28
 0670
 1001
 4C28
 0129
 1001
 4C28
 0850
 1001
 4C28
 08EC
 1001
 4C28
 0993
 1001
 4C28
 04C7
 6500
 0346
 70E5
 4400
 07A2
 70D6
 1005
 4C28
 0993
 6500
 035F
 4028
 3000
 70CE
 0141
 0000
 1810
 D400
 02BE
 6500
 0480
 6D00
 02C7
 C804
 DC00
 02B6
 4C80
 0135
 2181
 2181
 0000
 6903
 4400
 0B7D
 2000
 0000
 4400
 0B7D
 0000
 70FC
 3000
 0808
 6500
 02B8
 4400
 0166
 C400
 02B9
 4C80
 0144
 02B9
 3A00
 0000
 6903
 4400
 0B7D
 2000
 0000
 4400
 0B7D
 0000
 70FC
 4C80
 015A
 0000
 CC00
 02B6
 D83C
 7101
 6940
 71FF
 C100
 903C
 D038
 4830
 1810
 8038
 D035
 A035
 18D0
 6500
 0286
 6918
 D1FF
 6104
 C480
 01AC
 1890
 1010
 18C4
 180C
 8400
 02C7
 9029
 D001
 C400
 0000
 D500
 01A1
 71FF
 70F3
 61FA
 CD00
 01A8
 1808
 1088
 D400
 0000
 7401
 0191
 7102
 70F6
 7401
 01AC
 74FF
 01A9
 70DF
 4400
 0254
 C00A
 4C30
 016E
 4C80
 0166
@01A8
 0000
 0000
 0003
 0010
 0000
 000F
 0000
 0818
 4878
 1000
 0813
 6500
 B49C
 C80E
 A811
 7101
 70FC
 1010
 D400
 0032
 D400
 0BCA
 D400
 0EB7
 D400
 0AC4
 4C00
 0102
 3AAA
 AAAA
 0EB7
 0A00
 5555
 0F01
 0000
 6203
 9100
 4818
 8006
 8100
 7101
 72FF
 70F9
 4C80
 01CA
 0008
 0000
 6500
 0398
 4400
 0144
 6500
 0346
 18D0
 108C
 1004
 D80F
 18DC
 980B
 4828
 18D0
 4C10
 01D9
 C008
 4027
 C007
 4025
 C804
 4C80
 01D6
 000B
 000B
 0000
 0000
 0000
 D301
 D400
 02BB
 6B03
 4400
 0A2F
 0200
 0000
 8005
 7400
 0AC4
 70FD
 4C80
 01F2
 0001
 0000
 D301
 D400
 02BB
 6B03
 4400
 0A2F
 0100
 0000
 7400
 0AC4
 70FD
 4C80
 0202
 0000
 180B
 D005
 4400
 0B7D
 0000
 70FC
 6500
 0000
 C500
 0A93
 E022
 D500
 0AAF
 D01C
 C400
 051A
 4C10
 0228
 0D00
 0A92
 4CA0
 0210
 7005
 0811
 0D00
 0A92
 4C20
 0232
 C011
 4400
 0028
 4C00
 0102
 C0E5
 1003
 EC00
 0AAC
 3000
 4C80
 0210
@023A
 023C
 0000
 0001
 0000
 FEFF
 5001
 0000
 C079
 E010
 D301
 6B03
 4400
 0A2F
 0300
 0000
 6B03
 4400
 0A2F
 0100
 0000
 7400
 0AC4
 70FD
 4C80
 0240
 F000
 0000
 7400
 02BE
 700D
 4400
 0B7D
 2000
 0285
 4400
 0B7D
 2000
 026F
 4400
 0B7D
 0000
 70FC
 7008
 4480
 02CA
 2010
 0285
 027B
 4480
 02CA
 3D00
 4C80
 0254
 0001
 2181
 0000
 C006
 D011
 C005
 D010
 40DD
 4C80
 0271
 0001
 7F7F
 0000
 1802
 4C80
 027B
@0280
 0000
 0003
@0285
 0000
@02B6
@02B8
 0001
 0000
 0000
 0000
 0000
 0000
 0000
 0000
 0000
 0000
 0000
 0000
 0000
 0000
 0567
 0000
 0000
 0000
 0000
 0E2B
@02CE
 0B82
 003B
 819C
 B060
 7421
 5074
 8281
 9890
 21C4
 219C
 5021
 2074
 209C
 5CA0
 8198
 9021
 FC21
 9C50
 211C
 5054
 A481
 9890
 21D8
 219C
 5021
 30B0
 7054
 8198
 9021
 DC21
 9C50
 2154
 3C9C
 1C24
 8198
 9021
 F021
 9C50
 213C
 743C
 5CA4
 A034
 8198
 9021
 F421
 9C50
 211C
 7054
 8198
 9021
 D021
 9C50
 2120
 7420
 9C5C
 A021
 7434
 9021
 3020
 9858
 8121
 001B
 8134
 749C
 3460
 8281
 5424
 A498
 2130
 6021
 7450
 0021
 FE18
 209C
 9821
 C484
 DCF6
 8198
 1C9C
 6021
 3C30
 3060
 21FE
 1820
 9C98
 21F0
 84FC
 F4F6
 8121
 000E
 3474
 9C34
 6021
 7450
 0021
 5010
 2198
 1C9C
 6098
 219C
 5021
 30B0
 7054
 8121
 000F
 9CB0
 6074
 2150
 7421
 9890
 21C4
 2110
 5060
 2170
 5060
 3421
 9C34
 989C
 2074
 1481
 0009
 3474
 9C60
 A421
 3460
 6000
 0000
 6034
 9C60
 A481
 000E
 8134
 749C
 3460
 2130
 6021
 7450
 0021
 FE18
 209C
 9821
 FCD8
 84FC
 F4F6
 8121
 000F
 811C
 7054
 2150
 549C
 2050
 7421
 B098
 3430
 0000
 0060
 345C
 503C
 3021
 301C
 2054
 0007
 8174
 5021
 3034
 1021
 1CA4
 5C98
 8121
 0006
 8130
 3410
 211C
 A45C
 9882
 8121
 0007
 3474
 9C34
 6021
 1C3C
 609C
 2120
 3081
 0011
 3020
 9858
 2134
 6060
 0000
 009C
 B060
 7421
 5074
 2198
 9021
 C421
 9C50
 2160
 349C
 60A4
 8121
 001A
 8134
 749C
 3460
 8281
 9850
 B060
 1C34
 2130
 6021
 FE18
 209C
 9821
 C484
 DCF6
 8150
 187C
 341C
 9C21
 3060
 21FE
 1820
 9C98
 21FC
 D884
 FCF4
 F681
 000F
 3474
 9C34
 6021
 6034
 5434
 3C9C
 211C
 749C
 21FE
 1820
 9C98
 21FC
 FC84
 FCF4
 F681
 0005
 3034
 1021
 1C3C
 609C
 8121
 0003
 5018
 7C34
 1C9C
 0003
 9850
 B060
 1C34
 0000
 0013
 8134
 749C
 3460
 2160
 5C9C
 B421
 3C30
 3060
 2150
 1021
 981C
 9C60
 2190
 3021
 9C50
 211C
 243C
 7414
 3421
 0009
 813C
 3030
 6021
 3460
 6021
 5074
 2198
 1C9C
 6021
 0009
 183C
 3021
 981C
 9C60
 213C
 3030
 6021
 903C
 9821
 000C
 8130
 2098
 5821
 6034
 3C30
 2134
 6060
 2150
 7421
 981C
 9C60
 2121
 000B
 9CB0
 6074
 2150
 7421
 9890
 21C4
 219C
 5021
 30B0
 7054
 2121
 0009
 811C
 7054
 2134
 6060
 2150
 7421
 981C
 9C60
 9821
 000C
 8150
 187C
 211C
 3C60
 9C21
 2098
 21B0
 1C3C
 609C
 2170
 989C
 6021
 000A
 8150
 187C
 211C
 3C60
 9C21
 2030
 2120
 74B4
 3C5C
 2030
 000F
 8150
 187C
 211C
 3C60
 9C21
 7450
 9C21
 1060
 3498
 245C
 A421
 2074
 209C
 5CA0
 3430
 0005
 8198
 601C
 2120
 3021
 C221
 0005
 8150
 187C
 2120
 3021
 C221
 4900
 4001
 0102
 0203
 4304
 0405
 4506
 4607
 0708
 0809
 640A
 250B
 260C
 670D
 680E
 290F
 F000
 F100
 F200
 F300
 F400
 F500
 F600
 F700
 F800
 F900
 C100
 C200
 C300
 C400
 C500
 C600
 C4F0
 FCF1
 D8F2
 DCF3
 F0F4
 F4F5
 D0F6
 D4F7
 E4F8
 E0F9
 3CC1
 18C2
 1CC3
 30C4
 34C5
 10C6
 14C7
 24C8
 20C9
 7CD1
 58D2
 5CD3
 70D4
 74D5
 50D6
 54D7
 64D8
 60D9
 98E2
 9CE3
 B0E4
 B4E5
 90E6
 94E7
 A4E8
 A0E9
 405B
 C07B
 047C
 4600
 DE00
 D600
 0000
 2000
 1000
 0800
 0400
 0200
 0100
 0080
 0040
 0020
 0010
 9000
 8800
 8400
 8200
 8100
 8080
 8040
 8020
 8010
 5000
 4800
 4400
 4200
 4100
 4080
 4040
 4020
 4010
 2800
 2400
 2200
 2100
 2080
 2040
 2020
 2010
 4420
 0420
 0220
 20A0
 8220
 4220
 8420
 D052
 6500
 0350
 4400
 0144
 9049
 6500
 0346
 4C10
 04CA
 8044
 100C
 D400
 02BB
 D043
 4400
 0210
 C041
 4C28
 04DD
 4400
 0240
 6500
 037E
 4400
 0144
 6500
 0346
 4C08
 04DF
 3000
 D400
 02BA
 C02F
 D400
 02C0
 D400
 0280
 1810
 D400
 0F68
 61FD
 C025
 D500
 0F6C
 7101
 70FC
 4039
 7400
 0F68
 7027
 4400
 0B7D
 2000
 036F
 4400
 0596
 6500
 0336
 4400
 0144
 4C10
 051F
 C012
 D400
 02BB
 6500
 03B3
 4400
 0144
 6500
 0346
 4C08
 050B
 100B
 180B
 4C18
 050B
 70D5
 000B
 0658
 0001
 0000
 0000
 4400
 0B7D
 2000
 03C3
 4C00
 0102
 4400
 0B7D
 2000
 0377
 6500
 0F68
 4400
 0166
 74FD
 0F68
 70EF
 7400
 02C4
 70EC
 70CE
 0000
 6500
 00CB
 693A
 C400
 0280
 D034
 6203
 6A33
 6500
 0570
 6904
 6600
 0140
 6B07
 C400
 0000
 18D0
 C480
 0540
 D823
 DE00
 0000
 72FE
 70FC
 6208
 C400
 02BB
 4400
 01F2
 7401
 02BB
 72FF
 70FA
 6208
 6101
 691A
 1810
 D400
 02BF
 D400
 02C5
 74FF
 02BB
 1000
 C400
 02BB
 4400
 0202
 E008
 9301
 4C18
 0576
 4400
 0629
 701A
@056A
 0FFF
 0000
 0000
 0032
 0000
 0000
 AAAA
 5555
 0000
 4400
 0629
 700C
 6500
 0140
 6B02
 C8EE
 9D00
 0000
 4818
 18D0
 4C20
 0573
 71FE
 70F7
 74FF
 056F
 70D8
 72FF
 70CC
 7401
 0540
 74FF
 056C
 70B0
 74FF
 056B
 70A8
 7408
 02BB
 74FF
 056E
 70A0
 4C80
 0530
 0000
 4400
 0665
 C400
 02C9
 8023
 D016
 C400
 02BA
 D305
 6B06
 7405
 05A7
 62FD
 C600
 0F6C
 D600
 0000
 7201
 70FA
 1810
 D306
 C011
 D309
 6600
 0033
 C600
 05CF
 D600
 0000
 72FF
 70FA
 C400
 02BB
 E00C
 E803
 4400
 01F2
 7046
 0000
 FFFE
 010F
 0001
 0180
 0018
 0008
 0002
 F000
 0009
 0000
 0000
 0018
 0000
 0138
 0000
 7112
 4528
 6280
 C019
 D400
 000C
 61F0
 C500
 020C
 D025
 0810
 3000
 C500
 020C
 1008
 D01F
 080A
 3000
 7101
 70F3
 3000
 70FE
 4C40
 0000
 0804
 70FC
@05E8
 020C
 0900
 01F4
 0F01
 819C
 2420
 9821
 2098
 213C
 2174
 5074
 8498
 A498
 9C34
 7021
 1C3C
 609C
 6020
 3014
 3400
 0000
@0603
 4400
 0665
 C400
 02BA
 D339
 C0B8
 D325
 D32A
 C0B6
 D32F
 C0B5
 D33E
 C0B4
 D352
 C400
 02BB
 E0B1
 E8AB
 D400
 02BB
 4400
 01F2
 C400
 02BB
 E0A9
 E8A7
 D0A9
 D400
 02BB
 4400
 0A2F
 0200
 05C6
 7400
 0AC4
 70FD
 4C80
 0596
 0000
 6911
 C0FD
 9400
 02C6
 4C20
 0632
 6C00
 02C5
 7400
 02BF
 700A
 6C00
 02BF
 C400
 056D
 D400
 056F
 6500
 0000
 4C80
 0629
 C400
 02C5
 4C18
 0645
 6C00
 02C4
 6201
 6E00
 056F
 6E00
 056B
 6500
 0F68
 7580
 0F68
 C400
 02BB
 E013
 D400
 02BB
 E00F
 4C20
 0658
 6C00
 02C4
 F100
 4C20
 065E
 7400
 0F68
 70DD
 F100
 D101
 7401
 0F68
 70D8
 0FF8
 FFF8
 0000
 6600
 0140
 6B02
 10A0
 DE00
 0000
 72FE
 70FC
 4C80
 0665
 4400
 01D6
 6500
 071B
 6600
 072A
 6A1E
 7202
 6A30
 62FF
 D907
 D400
 02BB
 D102
 E900
 D103
 4400
 0240
 C309
 D600
 0725
 C306
 D600
 0729
 C305
 D600
 0727
 C303
 EC00
 071D
 18D0
 C302
 4C28
 0792
 EC00
 071D
 DC00
 0000
 9400
 071E
 4C30
 0792
 C302
 9303
 4C30
 0792
 4C20
 06A4
 C303
 9079
 4C20
 0792
 C304
 4C28
 0792
 E875
 D400
 0000
 9073
 4C30
 0792
 6109
 6D80
 02C9
 7201
 7009
 6500
 072E
 69E0
 7102
 69F2
 6500
 071B
 C069
 70C0
 6500
 0445
 4400
 015A
 C066
 D400
 02B9
 6500
 02B8
 4400
 0166
 6500
 044B
 4400
 015A
 C05C
 D400
 02B9
 6500
 02B8
 4400
 0166
 3000
 C049
 D300
 C04F
 D053
 D309
 4C18
 06E9
 9047
 4C18
 06E5
 C047
 9042
 4C18
 06E9
 C043
 803E
 4C18
 06E9
 7034
 C03F
 8039
 4C20
 0783
 C03D
 4C08
 0780
 C03B
 8031
 D306
 C035
 802F
 4C18
 06FF
 C031
 902C
 4C18
 077B
 8027
 4C20
 0799
 6500
 0435
 4400
 015A
 3000
 C023
 D301
 4400
 01F2
 D01F
 C01D
 8019
 4400
 0202
 6580
 02C9
 713E
 6904
 6926
 6908
 61FB
 C500
 0000
 9014
 4C18
 0731
 1010
 D500
 0000
 7101
 70F6
 62FF
 7077
 0658
 0141
 0000
 0000
 0001
 0002
 0003
 0000
 0000
 0000
 0000
 0000
 0000
 0000
 0000
@072D
 0FFF
@0731
 C0F5
 D500
 0000
 C0EE
 4400
 01F2
 D0EB
 C0E9
 80E6
 4400
 0202
 80E2
 D0E4
 C0EA
 80E0
 4C18
 0747
 6680
 02C9
 7600
 00A3
 403F
 C0DB
 4400
 01F2
 D0D8
 6600
 063D
 6E00
 071D
 C0D2
 6500
 072A
 4400
 01CA
 D0CD
 4400
 0202
 7401
 0722
 C0C9
 6500
 072E
 4400
 01CA
 D0C4
 C0C3
 4400
 01F2
 6B09
 1810
 D400
 02BC
 C400
 02BB
 D301
 4400
 0A2F
 0180
 0000
 7400
 0AC4
 70FD
 7400
 02BC
 70EC
 C0AF
 80AA
 D0AD
 74FF
 071D
 70D6
 4C00
 0102
 6500
 041D
 4400
 015A
 70F9
 6500
 042A
 70FA
 6500
 0435
 70F7
 0000
 6A05
 62FD
 C600
 0731
 E0A1
 D600
 0000
 7201
 70F9
 4C80
 0786
 7201
 7005
 4400
 0B7D
 2000
 03CD
 7004
 4400
 0B7D
 2000
 03C9
 4400
 0B7D
 2000
 03D1
 70D7
 0000
 C400
 02C1
 4C04
 07D6
 6500
 030B
 4400
 0144
 D400
 02BB
 180C
 905C
 6500
 0346
 4C10
 07A9
 8057
 100C
 4400
 0210
 C400
 02BB
 E052
 904D
 4C10
 07AF
 D04B
 C400
 02C1
 4C18
 07C5
 6101
 6946
 701A
 6500
 0327
 4400
 0144
 D040
 6500
 0346
 4C08
 07C7
 803A
 4C30
 07C7
 4400
 0B7D
 0000
 70FC
 7009
 4C10
 07DD
 6101
 6930
 C400
 02BB
 7013
 7401
 080D
 4400
 0240
 6680
 02C9
 7205
 6A02
 62FD
 C600
 0000
 D600
 0F6C
 7201
 70FA
 C400
 02BB
 4400
 0202
 D400
 0282
 E019
 D400
 0284
 E01A
 62FD
 9600
 0F6C
 4C18
 084C
 8600
 0F6C
 4C02
 0811
 74F8
 0284
 7201
 70F4
 700D
 7F7F
 7F7F
 2121
 2121
 0658
 0000
 0000
 000B
 0FFF
 0000
 0140
 DEFC
 FFF8
 C8F4
 7400
 02BD
 C8EF
 DC00
 02B6
 C400
 02BD
 D400
 02BE
 C400
 02C8
 D400
 02C7
 C301
 D400
 0283
 C0EA
 4C04
 082C
 C400
 02BE
 4C18
 082C
 4480
 02CA
 3100
 7401
 080D
 6500
 0281
 4400
 0166
 4400
 0271
 6580
 02C9
 7101
 C0D6
 D301
 4400
 0166
 C400
 0283
 D301
 6203
 4400
 0271
 72FF
 70FC
 7401
 02BB
 74FF
 080A
 70A4
 1810
 D0C3
 4C80
 07A2
 C0C2
 D400
 0284
 70C1
 6102
 6D00
 02C1
 4400
 07A2
 4400
 0135
 1010
 D03F
 D041
 6500
 03D2
 4400
 0144
 6500
 0346
 D033
 9033
 4C10
 085C
 8031
 4C10
 0868
 70F4
 7400
 089B
 7042
 4400
 0B7D
 1001
 08A2
 C024
 18D0
 3000
 4400
 0B7D
 0000
 70FC
 C02C
 901F
 4C18
 08AD
 9021
 4C18
 08BC
 901F
 4C18
 08C3
 901D
 4C18
 08CB
 901B
 4C18
 08C8
 9019
 4C18
 085A
 62F0
 C018
 9600
 04AC
 4C18
 08A6
 7201
 70F9
 4400
 015A
 70D4
 0000
 0140
 0141
 4110
 0000
 013F
 0001
 0000
 DF90
 6180
 C000
 4200
 BBF0
@08A2
 0001
 0000
 0001
 8021
 C600
 0461
 1884
 C0EE
 1084
 D0EC
 70BB
 C0E6
 D005
 7402
 08B4
 1000
 C0E5
 D700
 0000
 7400
 089B
 7004
 4400
 0B7D
 2000
 08A4
 C0D7
 90DB
 4C10
 08CB
 80D4
 D0D2
 70A5
 C0D0
 4830
 90D4
 D0CD
 70A0
 7401
 089B
 70E2
 6101
 6D00
 02C1
 74FF
 02BB
 1000
 C400
 02BB
 6B03
 4400
 0A2F
 0200
 0000
 6B03
 4400
 0A2F
 0180
 0000
 7400
 0AC4
 70FD
 C400
 02BC
 4C18
 08E8
 1010
 D400
 02BC
 70E9
 4400
 07A2
 4C00
 0102
 6500
 0640
 6948
 6500
 0350
 4400
 0144
 9048
 6500
 0346
 4C10
 08F1
 8043
 100C
 D400
 02BB
 D03E
 4400
 0210
 C03B
 4400
 0240
 6680
 02C9
 7205
 6A02
 62FD
 C600
 0000
 EC00
 02BB
 D600
 0F6C
 7201
 70F8
 62F0
 6A2C
 C400
 02BB
 6500
 0F69
 4400
 01CA
 D400
 02BB
 62F8
 6A23
 7407
 02BB
 4063
 C400
 02C2
 4420
 095E
 C017
 F301
 4420
 093F
 7401
 093E
 700A
 7401
 093D
 70ED
 7408
 02BB
 74F8
 0937
 70DE
 4C00
 0102
 74FF
 02BB
 1000
 70E6
 0000
 0FFF
 8001
 0000
 0000
 000B
 0000
 0000
 0000
 4400
 0135
 6500
 03E6
 4400
 015A
 C0F3
 D400
 02B9
 6500
 02B8
 4400
 0166
 6500
 03F0
 4400
 015A
 C301
 D400
 02B9
 6500
 02B8
 4400
 0166
 C400
 02BB
 4400
 01F2
 4C80
 093F
 0000
 4400
 0135
 6500
 03FA
 4400
 015A
 C0D4
 D400
 02B9
 6500
 02B8
 4400
 0166
 6500
 0407
 4400
 0144
 C400
 02B9
 4C90
 095E
 C0C4
 D400
 02C1
 4400
 07A2
 74FF
 02BB
 1000
 1010
 D400
 02C1
 4C80
 095E
 0000
 6102
 6D00
 02C0
 1010
 D400
 02C2
 C400
 02BB
 4400
 0202
 E0AB
 D0AC
 1010
 D400
 02C0
 4C80
 0981
 6C00
 02C3
 C056
 D400
 0CA6
 D400
 0E26
 4400
 01D6
 D84D
 6700
 0CA6
 C04A
 D400
 02BB
 4400
 0240
 6700
 0E26
 C044
 D400
 02BB
 4400
 0240
 61FD
 C500
 0CAB
 E83B
 D500
 09F0
 C500
 0E2B
 E837
 D500
 09F3
 7101
 70F4
 61F9
 C500
 0CAF
 D500
 0E2F
 7101
 70FA
 404D
 7401
 09EA
 7401
 09EB
 4031
 61FB
 C500
 0CE4
 D500
 0E64
 7101
 70FA
 4040
 7401
 09EA
 7401
 09EB
 4024
 61F1
 C500
 0D55
 D500
 0ED5
 7101
 70FA
 4033
 6600
 063D
 6A0C
 7401
 09EA
 7401
 09EB
 4014
 402A
 74FF
 09E9
 70F7
 4C00
 0102
 0000
 0000
 0000
 0000
 0141
@09F0
@09F3
 0002
@09F6
 0000
 6700
 0CA6
 C0F0
 6500
 09ED
 4400
 01CA
 D0EB
 4400
 0202
 6700
 0E26
 C0E7
 6500
 09F0
 4400
 01CA
 D0E2
 4400
 0202
 4C80
 09F6
 0000
 1010
 D0D8
 6500
 FEC0
 CD00
 0DE8
 9D00
 0F68
 4818
 18D0
 4820
 D0CE
 7101
 70F6
 C0CB
 4C18
 0A2D
 4400
 0135
 6500
 0413
 4400
 015A
 C0C4
 D0CD
 C0C3
 D0CC
 6500
 09F3
 4400
 0166
 4C80
 0A0D
 0000
 DC00
 0ACA
 4C00
 0AE1
 0000
 1810
 D009
 0C00
 0AD0
 1001
 4C18
 0A3F
 7402
 0A40
 70FA
 6500
 0000
 0D00
 0A92
 D400
 00DD
 4C10
 0AD2
 C500
 0AAF
 1006
 180E
 4C18
 0AD2
 C400
 02C0
 4C04
 0A84
 4C20
 0A7C
 4878
 1000
 74FF
 0AC4
 7017
 4400
 0B7D
 2000
 0386
 4400
 0B7D
 0000
 70FC
 C400
 02BB
 18CB
 C0DC
 18C5
 C061
 8041
 3000
 0865
 C400
 02B9
 4C10
 0A84
 C01F
 D055
 C500
 0AAF
 E038
 F037
 4C20
 0A7F
 D04E
 74FF
 02BB
 C02F
 D400
 02BC
 700A
 6C00
 02C2
 7005
 4400
 0B65
 0D00
 0AAE
 7002
 1810
 D03E
 4C80
 0A34
 001F
@0A8A
@0A8C
 0000
 0010
 0000
 0000
 0A91
 0001
 0000
 2701
 0000
 8F01
 0000
 9701
 0000
 9F01
 0000
 A701
 0000
 B701
 0000
 BF01
 0000
 BF11
 0000
 BF21
 0000
 BF31
 0000
 BF41
 0001
 0000
 0180
 FFFF
 5000
@0AAE
@0AC4
 0000
 0000
 0300
 5002
 0100
@0ACA
@0ACC
@0ACE
 02B9
 3A00
 0300
 0301
 C500
 0AAF
 E0F1
 4C20
 0A84
 C400
 00DD
 1004
 4C28
 0A84
 C0B2
 F0CA
 D0B0
 4C40
 0B46
 6916
 6A17
 6680
 0A2F
 18D0
 C680
 0001
 D8E3
 1085
 E09D
 D003
 1005
 1885
 6500
 0000
 C0D3
 4C20
 0AF0
 C200
 4C20
 0AFF
 C8D3
 6500
 0000
 6600
 0000
 7402
 0A2F
 4C80
 0A2F
 80C8
 180A
 D08C
 C201
 D500
 0AAE
 C400
 02C1
 4C04
 0B0D
 C680
 0001
 DE80
 0001
 C0BF
 100D
 180D
 EA00
 F500
 0A93
 F094
 D500
 0AAF
 E0AF
 4C20
 0B28
 C08E
 D500
 0A92
 C8AF
 DE80
 0001
 C08A
 F500
 0A93
 D400
 0A8F
 C400
 0A90
 D400
 0A8E
 C0A4
 1004
 1807
 D099
 9500
 0A92
 4C18
 0B5D
 1890
 180F
 1002
 ED00
 0A93
 F09B
 18D0
 4C10
 0B3D
 F400
 0AAB
 8400
 0AA8
 DC00
 0A8A
 C085
 D500
 0A92
 C400
 0A8D
 D400
 0AC4
 401E
 C400
 0A8E
 4C18
 0B4D
 C400
 0A8F
 4C04
 0B52
 0C00
 0A8A
 7002
 0C00
 0A8E
 7400
 0AC4
 70FD
 C500
 0AAF
 E400
 0AD0
 4C18
 0AF6
 C400
 0A8D
 D400
 0AC4
 4003
 0D00
 0AAE
 7091
 0000
 0D00
 0A92
 D400
 00DD
 4C28
 0B77
 1002
 4C90
 0B65
 C400
 0AEF
 1003
 EC00
 0AAC
 4400
 0028
 70EF
 1002
 4C90
 0B65
 C400
 0AC7
 70F7
 0000
 6918
 6580
 0B7D
 7007
 0000
 4C00
 0BE7
 0002
 2000
 2001
 7001
 6A0F
 280F
 D83C
 C100
 180C
 4C20
 0B9D
 C039
 4818
 7101
 C834
 7101
 6906
 6500
 0000
 6600
 0000
 2000
 4C00
 0000
 C02C
 4C20
 0B9D
 C100
 D400
 0C14
 180C
 90E0
 4C30
 0BBD
 80E0
 D011
 0820
 1005
 4C28
 0BBF
 1810
 D061
 D05C
 D062
 D05D
 C101
 8018
 D055
 D05B
 C580
 0001
 4C08
 0BBD
 7000
 7012
 701F
 C0C9
 7003
 4C02
 0BA9
 C0C4
 71FF
 6D00
 0028
 6128
 70CD
@0BC8
@0BCA
 0000
 0F00
 0001
 0F01
 D03E
 D042
 08F9
 1006
 4C28
 0BC1
 4C00
 0C9D
 D0F3
 7401
 0032
 1000
 082B
 70B6
 1001
 D02F
 D0EB
 7401
 0032
 1000
 C480
 0C0A
 D021
 0822
 70AB
 08E4
 D025
 1001
 4C28
 0C39
 4802
 7001
 7011
 C020
 4C20
 0C8C
 C019
 4C20
 0C7D
 C0C4
 4804
 701E
 7400
 0C0D
 7005
 1810
 D0CD
 74FF
 0032
 1000
 C00D
 1002
 44A8
 002C
 4C80
 0B82
@0C07
 0C00
 0C06
 0900
 0000
 0A00
 0000
 0000
 0000
 0000
 0000
 0000
 0000
 0000
 0000
 00FF
 74FF
 0C0D
 7001
 70E1
 C0F4
 4C18
 0C24
 1810
 D0F0
 7401
 0C0A
 C480
 0C0A
 7005
 C073
 D0E9
 C480
 0C0A
 1008
 D0DC
 089F
 1005
 4C28
 0C34
 089B
 1005
 4C28
 0C34
 08D5
 70CC
 C400
 0B86
 4400
 008D
 70F1
 08D0
 C480
 0C0A
 100D
 4C02
 0C6B
 18D0
 C0D3
 4C04
 0C48
 18D0
 4C30
 0C6F
 4C20
 0C76
 612A
 C0CA
 1801
 4804
 71FC
 C480
 0C0A
 F500
 0000
 4C18
 0C55
 71FF
 70F8
 C500
 0000
 D0AE
 E0BC
 18D0
 C0B9
 1801
 4C04
 0C64
 7401
 0C0A
 74FF
 0C0D
 08A3
 70C6
 C0A8
 4804
 1088
 18D0
 D480
 0C0A
 70F3
 C02E
 D480
 0C0A
 708C
 D0A0
 C0A0
 D098
 C09F
 D099
 C027
 70B3
 D095
 74FF
 0C0A
 7401
 0C0D
 C01D
 70AC
 C095
 4C20
 0C84
 C017
 D091
 C019
 70A5
 1810
 D086
 D08C
 D088
 0C00
 0C06
 4C00
 0C00
 C086
 4C18
 0C80
 C400
 0C0C
 4C20
 0C84
 C004
 D400
 0C0C
 C004
 7091
 0001
 1100
 4110
 8100
 BC00
 C005
 D0B1
 C004
 D0B5
 4C00
 0BD6
 049C
 0471
@0CA6
 0000
 6D00
 0D26
 6580
 0CA6
 7065
 0000
@0CAE
 0000
 0000
 6001
 1082
 74FC
 0CD4
 7033
 108E
 7420
 0CD4
 7408
 0D0E
 D400
 0020
 7401
 0CBB
 7029
 7401
 0027
 701B
 C045
 7001
 C0EB
 6500
 0000
 71FE
 6D00
 0028
 6129
 7058
 0CAC
 3200
 FF00
 0002
 0016
 0001
 0000
 F100
 0020
 08F6
 C0FB
 4C08
 0CE0
 C0F6
 D034
 C0D0
 F0F6
 4C20
 0DD0
 D0F2
 C0CB
 1808
 E8C9
 D0C8
 4400
 0E1C
 6680
 0D0D
 C600
 0000
 F0C1
 80E2
 4C02
 0CEF
 88DF
 1008
 4818
 88DE
 7201
 70BD
 C012
 D0DE
 8017
 8016
 D001
 6600
 0000
 1810
 12C0
 D480
 0CBB
 C00F
 90D0
 D00D
 C004
 D0B7
 C008
 D008
 70B8
 0020
 6000
 3480
 0030
 000C
 FFC4
 0000
 0000
 0000
 0000
 69B4
 6A15
 2815
 D899
 0874
 1005
 4C28
 0CC2
 C480
 0CC6
 188C
 4820
 700E
 086B
 1808
 4818
 7101
 7101
 C88A
 6906
 6500
 0000
 6600
 0000
 2000
 4C00
 0000
 18D4
 D0E2
 188C
 90A1
 4C08
 0CC4
 909C
 4818
 702E
 D066
 10A0
 0852
 1808
 4C20
 0D37
 C060
 D095
 7101
 690B
 7101
 6D00
 0E0E
 C0CD
 D046
 188C
 9059
 1802
 4C20
 0CC4
 9480
 0000
 4C10
 0CC4
 D0BF
 D0BF
 90BC
 4C28
 0CC4
 C480
 0D4A
 804A
 90B7
 D092
 C8B2
 D0B6
 D82E
 4400
 0E1C
 7401
 0027
 08A9
 7401
 0032
 1000
 70BF
 C024
 4830
 70FD
 0823
 180C
 4C20
 0D66
 C0A0
 D06C
 1810
 1084
 D02C
 4C20
 0D74
 1084
 4C18
 0CC4
 9096
 4C30
 0D8F
 6200
 4C10
 0D8C
 801D
 6201
 4C18
 0D8C
 8019
 7201
 4C18
 0D8C
 801C
 7201
 74FF
 0DD8
 70F9
 70BF
 0000
 0000
 0000
 3700
 C012
 1240
 E846
 D00E
 C00A
 4C18
 0D22
 C00A
 4C10
 0D99
 0805
 70C7
 0003
 083C
 70C4
 0000
 0000
 3404
 0000
 0001
 0000
 0876
 D072
 1001
 4C10
 0DB3
 1007
 1808
 E82C
 F0F4
 4820
 7013
 D06E
 D0F0
 0829
 74FF
 0032
 1000
 700C
 1001
 4810
 7009
 C05E
 E863
 D062
 C0E4
 90E4
 D0E2
 4C08
 0DAF
 0817
 C055
 E85A
 D059
 4C10
 0DD0
 C055
 4C20
 0DD2
 C04D
 1004
 4C10
 0DDA
 C04C
 D04D
 404E
 7401
 0027
 4C80
 0DA0
 90CC
 D046
 70FB
 8000
 8080
 3401
 0000
 3402
 C400
 0D0F
 4C20
 0CD5
 403D
 7401
 0027
 C0A6
 4C20
 0DED
 D036
 74FA
 0D89
 70E8
 082D
 74FF
 0032
 70E4
 70E3
 74FD
 0D88
 70E0
 C0AD
 4C20
 0DF9
 C400
 0D8A
 100B
 180F
 F0A7
 D0A5
 D0A1
 C020
 4C04
 0E0A
 1801
 4C04
 0E0C
 C09D
 4818
 70CD
 4C28
 0E13
 08D0
 7401
 0032
 1000
 70C6
 C00B
 7001
 C08B
 4480
 0000
 4C18
 0E00
 C0C4
 D08B
 0888
 70F1
 0000
 0004
 3440
 002E
 3701
 0000
 0000
 0000
 10A0
 62F8
 DE00
 0028
 7202
 70FC
 4C80
 0E1C
@0E26
 0000
 6919
 6580
 0E26
 7003
 0000
 4C00
 0ECC
 6A10
 2812
 D87D
 087E
 4C04
 0EA7
 C100
 188C
 4C20
 0E4E
 7400
 0EB7
 71FF
 7102
 C871
 6906
 6600
 0000
 6500
 0000
 2000
 4C00
 0000
 0000
 0869
 4C04
 0EA7
 7400
 0EB7
 70FA
 4C80
 0E45
 6210
 1240
 72FF
 72FF
 7052
 1002
 40F0
 4802
 7047
 C101
 D015
 D00D
 18CC
 180C
 D053
 1801
 4C20
 0EA5
 623C
 C851
 DE00
 0DE6
 72FE
 70FC
 6680
 0000
 7200
 72C4
 703A
 723C
 1000
 C600
 0000
 D600
 0DE7
 72FF
 70FA
 C102
 D400
 0F05
 40CE
 404D
 083F
 7102
 C03B
 4C18
 0E3A
 C038
 806D
 D004
 90DA
 4C30
 0E8B
 C065
 1800
 D036
 902D
 4818
 683B
 62FE
 C033
 D02A
 6907
 6801
 6500
 0000
 7105
 6A04
 40B2
 6500
 0000
 6600
 0000
 402D
 0E00
 0EBC
 74FF
 0EB6
 70EF
 709C
 1010
 1084
 4C20
 0E7E
 1084
 D012
 7095
 C019
 7001
 C018
 71FE
 6D00
 0028
 6129
 7090
@0EAE
@0EB0
 0000
 AF00
 8600
 7F7F
 0800
 AF01
 0000
 0000
 0DE8
 AD00
 0EBC
 A900
 0000
 AC00
 0001
 9001
 9000
 0000
 0000
 0000
 0000
 0000
 7401
 0EB7
 7401
 0032
 4C80
 0EC5
 08E3
 E8F5
 D0F4
 08E4
 D0F1
 1001
 4C10
 0EDE
 6201
 C0EB
 4C20
 0F04
 C0DD
 E8D6
 4C20
 0EDE
 6203
 702A
 C0E3
 1002
 4C10
 0EED
 62FF
 C0DF
 E0CD
 4C20
 0F01
 74FF
 0EB7
 1000
 74FF
 0032
 1800
 C0D4
 1003
 4C90
 0E2B
 6203
 6ACF
 1009
 4C02
 0EF9
 4C10
 0EFA
 7201
 6AC7
 C0C9
 4C18
 0EE7
 1010
 D0C5
 D0C1
 70E6
 F0C1
 D0C0
 C0BA
 4400
 0000
 4C18
 0F17
 08A7
 4C04
 0F1B
 1802
 4C04
 0F08
 C0A5
 D0AC
 40B4
 0E00
 0EB9
 72FF
 70C9
 6AAB
 70C7
 72FF
 70C5
 6AA7
 70BD
 C0A4
 4400
 008D
 70E9
 0000
 6500
 0FCD
 6D00
 0009
 6500
 00B3
 6D00
 000A
 6500
 00C4
 6D00
 000C
 6500
 0091
 6D00
 000D
 6500
 01AE
 6D00
 002C
 1810
 D400
 0032
 61FB
 C500
 0F8F
 D500
 002C
 C500
 0F93
 D500
 0085
 C500
 0F97
 D500
 0091
 C500
 0F9B
 D500
 0095
 7101
 70EE
 61CF
 C500
 0FCC
 D500
 00E4
 7101
 70FA
 C400
 0FCC
 D400
 00D4
 6500
 0480
 6D00
 02C8
 1810
 D400
 02BD
 0829
 4C04
 0F65
 4400
 0E26
 3D00
 0823
 4C20
 0F78
 0822
 1005
 4C28
 0F6F
 4400
 0CA6
 3D00
 081B
 4C20
 0F72
 6700
 0CA6
 700F
 7410
 02C8
 6700
 0E26
 C00E
 7003
 C011
 6700
 0CA6
 D400
 02CA
 74E0
 02C8
 6C00
 02BD
 6F00
 02C9
 4C80
 0F1F
 0CA6
 0000
 AF01
 0000
 3701
 0E26
 0000
 3000
 4C80
 0028
 0000
 3000
 4C80
 0081
 0000
 3000
 4C80
 008D
 0000
 3000
 4CC0
 0091
 0000
 6906
 6A07
 2807
 D80A
 4400
 0A34
 6500
 0000
 6600
 0000
 2000
 C802
 4CC0
 00B3
 0000
 0000
 0000
 D818
 280E
 690F
 6A10
 0816
 1002
 4C10
 00D0
 4480
 002C
 FFFE
 6109
 0810
 1140
 4580
 0000
 2000
 6500
 0000
 6600
 0000
 C803
 4CC0
 00C4
 0000
 0000
 0000
 0000
 0F00
 0000
 0300
 02C6
 0000
 6906
 6A07
 2807
 D80A
 4400
 0DA0
 6500
 0000
 6600
 0000
 2000
 C802
 4CC0
 0FCD
 0000
 0000
@1000
=0100
